acls:
  enable: false
  modify_groups: []
  modify_users: []
  ui_users: []
  view_groups: []
  view_users: []
file_systems: []
master:
  env:
    SPARK_CONF_DIR: /etc/spark3/conf
    SPARK_HOME: /usr/lib/spark3
  files:
    airflow.keytab:
      size: 0
      source: file:///pytest/path/to/airflow.keytab
      timestamp: 0
      type: FILE
      visibility: APPLICATION
  log_level: INFO
  resources:
    fpgas: 0
    gpus: 0
    memory: 4096
    vcores: 1
  script: spark3-submit --driver-cores 2 --conf spark.executorEnv.SPARK_HOME=/usr/lib/spark3
    --conf spark.executorEnv.SPARK_CONF_DIR=/etc/spark3/conf --master yarn --conf
    spark.dynamicAllocation.enabled=true --conf spark.dynamicAllocation.maxExecutors=150
    --conf spark.shuffle.service.enabled=true --conf spark.yarn.maxAppAttempts=1 --conf
    spark.hadoop.fs.permissions.umask-mode=0027 --conf spark.sql.shuffle.partitions=2500
    --conf spark.sql.executor.memoryOverhead=640M --conf spark.sql.shuffle.service.enabled=true
    --conf spark.reducer.maxReqsInFlight=1 --conf spark.shuffle.io.retryWait=120s
    --conf spark.shuffle.io.maxRetries=10 --conf spark.yarn.appMasterEnv.SPARK_CONF_DIR=/etc/spark3/conf
    --conf spark.yarn.appMasterEnv.SPARK_HOME=/usr/lib/spark3 --executor-cores 4 --executor-memory
    8G --driver-memory 1G --keytab airflow.keytab --principal airflow --name glent_weekly__resolve_query_similary_suggestions__20200509
    --queue production --deploy-mode cluster hdfs:///wmf/cache/artifacts/airflow/search/glent-0.3.3-jar-with-dependencies.jar
    m1run --input-table glent.m1prep --input-partition 20200516 --candidates-directory
    hdfs://analytics-hadoop/tmp/glent_weekly_2020-05-09/query_similarity_candidates
    --max-edit-dist-sugg 3 --max-norm-edit-dist 1.5 --min-hits-diff 100 --min-hits-perc-diff
    10 --output-table glent.suggestions --output-partition 20200516 --max-output-partitions
    100
max_attempts: 1
name: Airflow SparkSkeinSubmitHook skein launcher glent_weekly__resolve_query_similary_suggestions__20200509
node_label: ''
queue: production
services: {}
tags: []
user: ''
