acls:
  enable: false
  modify_groups: []
  modify_users: []
  ui_users: []
  view_groups: []
  view_users: []
file_systems: []
master:
  env:
    SPARK_CONF_DIR: /etc/spark3/conf
    SPARK_HOME: /usr/lib/spark3
  files:
    airflow.keytab:
      size: 0
      source: file:///pytest/path/to/airflow.keytab
      timestamp: 0
      type: FILE
      visibility: APPLICATION
  log_level: INFO
  resources:
    fpgas: 0
    gpus: 0
    memory: 22889
    vcores: 2
  script: spark3-submit --driver-cores 2 --conf spark.executorEnv.SPARK_HOME=/usr/lib/spark3
    --conf spark.executorEnv.SPARK_CONF_DIR=/etc/spark3/conf --master yarn --conf
    spark.dynamicAllocation.maxExecutors=88 --conf spark.hadoop.io.compression.codecs=org.wikimedia.analytics.refinery.spark.bzip2.CorrectedBZip2Codec
    --conf spark.executor.memoryOverhead=4096 --conf spark.yarn.appMasterEnv.SPARK_CONF_DIR=/etc/spark3/conf
    --conf spark.yarn.appMasterEnv.SPARK_HOME=/usr/lib/spark3 --executor-cores 2 --executor-memory
    20G --driver-memory 24G --keytab airflow.keytab --principal airflow --name mediawiki_wikitext_history__convert_history_xml_to_parquet__20230501
    --class org.wikimedia.analytics.refinery.job.mediawikihistory.MediawikiXMLDumpsConverter
    --queue production --deploy-mode client hdfs:///wmf/cache/artifacts/airflow/analytics/refinery-job-0.2.41-shaded.jar
    --xml_dumps_base_path hdfs://analytics-hadoop/wmf/data/raw/mediawiki/dumps/pages_meta_history/20230501
    --output_base_path hdfs://analytics-hadoop/wmf/data/wmf/mediawiki/wikitext/history/snapshot=2023-04
    --max_parallel_jobs 128 --output_format avro --disallow_list wikidatawiki
max_attempts: 1
name: Airflow SparkSkeinSubmitHook skein launcher mediawiki_wikitext_history__convert_history_xml_to_parquet__20230501
node_label: ''
queue: production
services: {}
tags: []
user: ''
