acls:
  enable: false
  modify_groups: []
  modify_users: []
  ui_users: []
  view_groups: []
  view_users: []
file_systems: []
master:
  env: {}
  files:
    airflow.keytab:
      size: 0
      source: file:///pytest/path/to/airflow.keytab
      timestamp: 0
      type: FILE
      visibility: APPLICATION
  log_level: INFO
  resources:
    fpgas: 0
    gpus: 0
    memory: 1024
    vcores: 1
  script: kinit -k -t airflow.keytab airflow && xargs --no-run-if-empty hdfs dfs -rm
    -r <<< $(hdfs dfs -ls /user/analytics-platform-eng/structured-data/section_topics/section_titles_denylist
    | head -n -4 | tr -s ' ' | cut -d' ' -f8)
max_attempts: 1
name: section_titles_denylist__cleanup_gather_section_titles_denylist__20241007
node_label: ''
queue: production
services: {}
tags: []
user: ''
