acls:
  enable: false
  modify_groups: []
  modify_users: []
  ui_users: []
  view_groups: []
  view_users: []
file_systems: []
master:
  env: {}
  files:
    airflow.keytab:
      size: 0
      source: file:///pytest/path/to/airflow.keytab
      timestamp: 0
      type: FILE
      visibility: APPLICATION
    swift_auth.env:
      size: 0
      source: hdfs://analytics-hadoop/user/analytics-research/swift_auth_research_poc.env
      timestamp: 0
      type: FILE
      visibility: APPLICATION
  log_level: INFO
  resources:
    fpgas: 0
    gpus: 0
    memory: 1024
    vcores: 1
  script: kinit -k -t airflow.keytab airflow && hdfs dfs -get /tmp/research/reference_risk/inference/20240901/features.db
    && source swift_auth.env && sha512sum -b features.db > checksum && swift upload
    --object-name reference-risk/20240901/features.db feature-sets features.db &&
    swift upload --object-name reference-risk/20240901/features.sha512 feature-sets
    checksum && swift post feature-sets --read-acl '.r:*,.rlistings'
max_attempts: 1
name: reference_risk_features__publish_to_swift__20241001
node_label: ''
queue: production
services: {}
tags: []
user: ''
