acls:
  enable: false
  modify_groups: []
  modify_users: []
  ui_users: []
  view_groups: []
  view_users: []
file_systems: []
master:
  env:
    PYSPARK_DRIVER_PYTHON: venv/bin/python
    PYSPARK_PYTHON: venv/bin/python
    SPARK_CONF_DIR: /etc/spark3/conf
    SPARK_HOME: /usr/lib/spark3
  files:
    airflow.keytab:
      size: 0
      source: file:///pytest/path/to/airflow.keytab
      timestamp: 0
      type: FILE
      visibility: APPLICATION
    venv:
      size: 0
      source: hdfs:///wmf/cache/artifacts/airflow/platform_eng/section-topics-0.16.0-v0.16.0.conda.tgz
      timestamp: 0
      type: ARCHIVE
      visibility: APPLICATION
  log_level: INFO
  resources:
    fpgas: 0
    gpus: 0
    memory: 3815
    vcores: 2
  script: spark3-submit --driver-cores 2 --conf spark.executorEnv.PYSPARK_DRIVER_PYTHON=venv/bin/python
    --conf spark.executorEnv.PYSPARK_PYTHON=venv/bin/python --conf spark.executorEnv.SPARK_HOME=/usr/lib/spark3
    --conf spark.executorEnv.SPARK_CONF_DIR=/etc/spark3/conf --master yarn --conf
    spark.dynamicAllocation.enabled=true --conf spark.dynamicAllocation.maxExecutors=128
    --conf spark.shuffle.service.enabled=true --conf spark.yarn.maxAppAttempts=1 --conf
    spark.sql.shuffle.partitions=2048 --conf spark.reducer.maxReqsInFlight=1 --conf
    spark.shuffle.io.retryWait=60s --conf spark.executor.memoryOverhead=3g --conf
    spark.yarn.appMasterEnv.SPARK_CONF_DIR=/etc/spark3/conf --conf spark.yarn.appMasterEnv.SPARK_HOME=/usr/lib/spark3
    --conf spark.yarn.appMasterEnv.PYSPARK_PYTHON=venv/bin/python --conf spark.yarn.appMasterEnv.PYSPARK_DRIVER_PYTHON=venv/bin/python
    --archives 'hdfs:///wmf/cache/artifacts/airflow/platform_eng/section-topics-0.16.0-v0.16.0.conda.tgz#venv'
    --executor-cores 4 --executor-memory 8G --driver-memory 4G --keytab airflow.keytab
    --principal airflow --name section_topics__fetch_qids_for_all_points_in_time__20220926
    --queue production --deploy-mode client venv/lib/python3.10/site-packages/section_topics/scripts/fetch_qids_from_wikidata.py
    venv/lib/python3.10/site-packages/section_topics/scripts/sparql/qids_for_all_points_in_time.sparql
    --output /user/analytics-platform-eng/structured-data/section_topics/qids_filters/qids_for_all_points_in_time/2022-09-19
max_attempts: 1
name: Airflow SparkSkeinSubmitHook skein launcher section_topics__fetch_qids_for_all_points_in_time__20220926
node_label: ''
queue: production
services: {}
tags: []
user: ''
